Engine/Binaries/Win64/D3D12/D3D12Core.dll	2023-11-24T21:15:17.236Z
Engine/Binaries/Win64/OpenImageDenoise.dll	2023-11-24T21:15:20.825Z
Engine/Binaries/Win64/tbb.dll	2023-11-24T21:15:23.887Z
Engine/Binaries/Win64/tbb12.dll	2023-11-24T21:15:23.980Z
Engine/Binaries/Win64/tbbmalloc.dll	2023-11-24T21:15:23.980Z
Engine/Binaries/Win64/UnrealGame-Win64-Shipping.exe	2023-11-24T21:15:48.095Z
Engine/Extras/Redist/en-us/UEPrereqSetup_x64.exe	2023-11-24T21:17:17.045Z
Engine/Binaries/ThirdParty/DbgHelp/dbghelp.dll	2023-11-24T21:14:52.280Z
Engine/Binaries/ThirdParty/MsQuic/v220/win64/msquic.dll	2023-11-24T21:15:10.257Z
Engine/Binaries/ThirdParty/NVIDIA/NVaftermath/Win64/GFSDK_Aftermath_Lib.x64.dll	2023-11-24T21:15:10.271Z
Engine/Binaries/ThirdParty/Ogg/Win64/VS2015/libogg_64.dll	2023-11-24T21:15:10.353Z
Engine/Binaries/ThirdParty/Vorbis/Win64/VS2015/libvorbis_64.dll	2023-11-24T21:15:15.996Z
Engine/Binaries/ThirdParty/Vorbis/Win64/VS2015/libvorbisfile_64.dll	2023-11-24T21:15:15.997Z
Engine/Binaries/ThirdParty/Windows/XAudio2_9/x64/xaudio2_9redist.dll	2023-11-24T21:15:16.196Z
Engine/Content/Slate/Cursor/invisible.cur	2023-11-24T21:16:33.170Z
TopDownShooter.exe	2024-01-13T07:41:59.351Z
